[
  {
    "description": "Lorem ipsum dolor sit amet, consectetur adipiscing elit. Duis id viverra justo. Curabitur nulla libero, consequat non vestibulum eget, pulvinar sed turpis.",
    "refId": "#sdsds"
  }
]